"","x"
"1",0.937025261408222
"2",0.950110168344962
"3",0.947220665262181
"4",0.944374649683991
"5",0.954096522932411
"6",0.922519762654864
"7",0.93834921432575
"8",0.939851949206595
"9",0.950936430932179
"10",0.935213282050291
"11",0.945519820638203
"12",0.959112081795164
"13",0.953091478381878
"14",0.949602814124741
"15",0.938711610197337
"16",0.934314540288757
"17",0.945877384564835
"18",0.947950288950308
"19",0.931048145499526
"20",0.913653143663387
"21",0.940770018747946
"22",0.936633873866909
"23",0.959677419354839
"24",0.937716229536713
"25",0.941277372968167
"26",0.920258412416166
"27",0.943925278803224
"28",0.920253580471211
"29",0.94686310133555
"30",0.959803049923655
"31",0.930690581572895
"32",0.93652757107791
"33",0.950216471133961
"34",0.951554919886353
"35",0.944017085757359
"36",0.94208913972052
"37",0.95770598581341
"38",0.927187421480895
"39",0.920205261021666
"40",0.917272270434295
"41",0.936749840545816
"42",0.956763756547285
"43",0.955860182840797
"44",0.947457430564951
"45",0.938943543555152
"46",0.933855505518081
"47",0.953062486712151
"48",0.905458165020584
"49",0.945674442876747
"50",0.946244612381376
"51",0.950868783702816
"52",0.925008214306423
"53",0.945046290032664
"54",0.950496723941321
"55",0.954589381317768
"56",0.934493322252073
"57",0.940359303426815
"58",0.965200332437813
"59",0.956343377336245
"60",0.946776126326369
"61",0.966790042327838
"62",0.963465664199153
"63",0.942514350876515
"64",0.941166238234214
"65",0.951153868455131
"66",0.958102205299677
"67",0.944113724656449
"68",0.947911633390672
"69",0.921311776416243
"70",0.940856993757127
"71",0.952207232455208
"72",0.958831828987804
"73",0.940963296546126
"74",0.955898838400433
"75",0.938030305958754
"76",0.951448617097354
"77",0.93502966814202
"78",0.923867875297165
"79",0.94442780107849
"80",0.957073001024372
"81",0.958512920620808
"82",0.930531127389397
"83",0.957459556620731
"84",0.942113299445293
"85",0.943519395427047
"86",0.946756798546551
"87",0.934111598600669
"88",0.961750323740312
"89",0.947877809775991
"90",0.94447128858308
"91",0.940895649316763
"92",0.935971897408145
"93",0.954033707648002
"94",0.947732851427357
"95",0.942804267573784
"96",0.953743790950733
"97",0.950487060051412
"98",0.959933512437426
"99",0.933425462417132
"100",0.927511161792845
"101",0.944485784417944
"102",0.946892093005276
"103",0.947916465335627
"104",0.95840661783181
"105",0.940088714509364
"106",0.948409323720984
"107",0.943717505170181
"108",0.949167939078838
"109",0.961702004290767
"110",0.936575890527455
"111",0.960899901428323
"112",0.941915189702159
"113",0.924293086453159
"114",0.931139952453662
"115",0.939127157463422
"116",0.927723767370842
"117",0.963489823923926
"118",0.93966350335337
"119",0.944519608032625
"120",0.961518390382497
"121",0.943843135738998
"122",0.935725468215466
"123",0.960658304180599
"124",0.947346295830998
"125",0.938223583756934
"126",0.949559326620151
"127",0.942074643885657
"128",0.957266278822552
"129",0.939305939426738
"130",0.951675718510215
"131",0.960445698602602
"132",0.956227410657338
"133",0.948641257078799
"134",0.95994800827229
"135",0.942987881482054
"136",0.956807244051876
"137",0.948317516766849
"138",0.949114787684339
"139",0.93582693905951
"140",0.953830765959914
"141",0.946621504087825
"142",0.970534799667562
"143",0.948037263959489
"144",0.964606003208411
"145",0.937083244747676
"146",0.960059143006243
"147",0.954033707648002
"148",0.93442567502271
"149",0.941663928564526
"150",0.93362840410522
"151",0.950491891996366
"152",0.954468582693906
"153",0.95111038095054
"154",0.946181797096967
"155",0.957097160749145
"156",0.95218790467539
"157",0.939499217224917
"158",0.94092464098649
"159",0.946790622161232
"160",0.936682193316454
"161",0.912957343589942
"162",0.947786002821856
"163",0.951893156033166
"164",0.954396103519589
"165",0.955995477299523
"166",0.94484818028953
"167",0.9620064168229
"168",0.922635729333771
"169",0.961078683391639
"170",0.948646089023754
"171",0.934237229169485
"172",0.921606525058467
"173",0.924877751792652
"174",0.940451110380951
"175",0.955995477299523
"176",0.947433270840179
"177",0.946795454106187
"178",0.947080538858501
"179",0.931357389976613
"180",0.946408898509828
"181",0.957237287152825
"182",0.926390150563405
"183",0.948873190436615
"184",0.955483291134347
"185",0.93152650805002
"186",0.95050638783123
"187",0.955164382767351
"188",0.93162314694911
"189",0.956807244051876
"190",0.958363130327219
"191",0.966123233924119
"192",0.928434063279151
"193",0.946379906840101
"194",0.944157212161039
"195",0.93232377896751
"196",0.949549662730242
"197",0.95938750265757
"198",0.93354142909604
"199",0.936880303059588
"200",0.928743307756238
"201",0.93788534761012
"202",0.951395465702855
"203",0.917165967645297
"204",0.941243549353486
"205",0.921065347223564
"206",0.931777769187653
"207",0.936025048802644
"208",0.963301378070701
"209",0.93630046966505
"210",0.952366686638706
"211",0.940948800711262
"212",0.934130926380487
"213",0.911454608709098
"214",0.950322773922959
"215",0.951840004638667
"216",0.954724675776494
"217",0.921142658342836
"218",0.943674017665591
"219",0.926399814453314
"220",0.941978004986567
"221",0.933749202729082
"222",0.922297493186958
"223",0.968239625814183
"224",0.927917045169021
"225",0.949839579427511
"226",0.949573822455015
"227",0.952299039409343
"228",0.930260538471946
"229",0.924157791994434
"230",0.959546956841068
"231",0.922220182067686
"232",0.944210363555538
"233",0.959237712363981
"234",0.957904095556543
"235",0.948046927849398
"236",0.955463963354529
"237",0.940170857573591
"238",0.936687025261408
"239",0.933575252710721
"240",0.938358878215659
"241",0.954101354877365
"242",0.952192736620344
"243",0.952274879684571
"244",0.953188117280968
"245",0.950873615647771
"246",0.944587255261988
"247",0.936276309940277
"248",0.945331374784978
"249",0.934068111096078
"250",0.918726685865595
"251",0.941823382748024
"252",0.949617309959605
"253",0.911048725332921
"254",0.942673805060013
"255",0.931144784398616
"256",0.940422118711224
"257",0.926713890875355
"258",0.937329673940354
"259",0.94606583041806
"260",0.94214229111502
"261",0.925863468563366
"262",0.917610506581109
"263",0.943746496839908
"264",0.93208701366474
"265",0.950636850345001
"266",0.95933435126307
"267",0.957797792767545
"268",0.954574885482905
"269",0.948225709812714
"270",0.93232377896751
"271",0.967389203502194
"272",0.94714335414291
"273",0.925621871315642
"274",0.957358085776687
"275",0.936145847426506
"276",0.931695626123427
"277",0.949172771023792
"278",0.928728811921375
"279",0.925989099132183
"280",0.945239567830843
"281",0.921393919480469
"282",0.950738321189045
"283",0.944307002454628
"284",0.933299831848316
"285",0.923254218287945
"286",0.92250526682
"287",0.941427163261756
"288",0.941403003536984
"289",0.950651346179864
"290",0.935875258509055
"291",0.932792477628095
"292",0.946254276271285
"293",0.961900114033901
"294",0.946515201298827
"295",0.93474941533466
"296",0.951545255996444
"297",0.962262509905487
"298",0.93550319874756
"299",0.946408898509828
"300",0.942127795280156
"301",0.95961460407043
"302",0.947259320821817
"303",0.930255706526991
"304",0.932628191499642
"305",0.948670248748526
"306",0.94844797928062
"307",0.951525928216626
"308",0.954318792400317
"309",0.94354355515182
"310",0.946447554069464
"311",0.945316878950115
"312",0.947568565298904
"313",0.941209725738804
"314",0.942944393977464
"315",0.922345812636502
"316",0.953318579794739
"317",0.952516476932295
"318",0.946399234619919
"319",0.952903032528653
"320",0.942920234252691
"321",0.915687392489225
"322",0.935319584839289
"323",0.928830282765419
"324",0.933700883279538
"325",0.944369817739036
"326",0.95966775546493
"327",0.952386014418524
"328",0.90713484991979
"329",0.934097102765805
"330",0.961170490345774
"331",0.932724830398732
"332",0.934618952820889
"333",0.947979280620035
"334",0.942504686986606
"335",0.914914281296507
"336",0.931797096967471
"337",0.930207387077446
"338",0.948129070913624
"339",0.938668122692746
"340",0.929931966215041
"341",0.956594638473878
"342",0.948723400143026
"343",0.942620653665513
"344",0.944079901041767
"345",0.94354355515182
"346",0.942446703647152
"347",0.926032586636773
"348",0.932637855389551
"349",0.921930265370417
"350",0.93200003865556
"351",0.945075281702391
"352",0.940422118711224
"353",0.936102359921916
"354",0.946969404124548
"355",0.932889116527185
"356",0.9633545294652
"357",0.926907168673535
"358",0.952129921335936
"359",0.96190977792381
"360",0.950037689170645
"361",0.930391000985717
"362",0.950095672510099
"363",0.938991863004697
"364",0.954715011886585
"365",0.946901756895185
"366",0.96303078915325
"367",0.930830707976575
"368",0.947529909739268
"369",0.961001372272367
"370",0.941799223023251
"371",0.913218268617484
"372",0.946370242950192
"373",0.938571483793657
"374",0.942736620344421
"375",0.932236803958329
"376",0.960503681942055
"377",0.926264519994588
"378",0.940668547903902
"379",0.933623572160266
"380",0.947612052803494
"381",0.933034074875819
"382",0.937817700380757
"383",0.954420263244361
"384",0.94442780107849
"385",0.944500280252807
"386",0.944698389995941
"387",0.956222578712383
"388",0.938344382380796
"389",0.926240360269816
"390",0.926143721370726
"391",0.949303233537564
"392",0.942451535592106
"393",0.95134714625331
"394",0.947095034693365
"395",0.935005508417248
"396",0.946080326252923
"397",0.954246313226
"398",0.94849146678521
"399",0.930883859371074
"400",0.94284292313342
"401",0.93914648524324
"402",0.927163261756122
"403",0.937179883646766
"404",0.961692340400858
"405",0.962644233556891
"406",0.915141382709368
"407",0.938977367169833
"408",0.932154660894103
"409",0.945051121977618
"410",0.951569415721216
"411",0.924152960049479
"412",0.936658033591681
"413",0.942949225922418
"414",0.961402423703589
"415",0.937247530876128
"416",0.917571851021473
"417",0.93438218751812
"418",0.958962291501575
"419",0.95265177139102
"420",0.958566072015308
"421",0.954748835501266
"422",0.946505537408918
"423",0.946640831867643
"424",0.95097025454686
"425",0.941523802160846
"426",0.956778252382149
"427",0.943272966234369
"428",0.938624635188156
"429",0.953101142271787
"430",0.951226347629448
"431",0.93928661164692
"432",0.955463963354529
"433",0.93358491660063
"434",0.929598562013182
"435",0.941465818821392
"436",0.956338545391291
"437",0.935411391793425
"438",0.944824020564758
"439",0.935150466765883
"440",0.954207657666364
"441",0.949675293299059
"442",0.928854442490191
"443",0.929352132820503
"444",0.958053885850132
"445",0.935508030692514
"446",0.948621929298981
"447",0.951356810143219
"448",0.949912058601828
"449",0.946655327702507
"450",0.942852587023329
"451",0.94096812849108
"452",0.922109047333733
"453",0.933140377664818
"454",0.962600746052301
"455",0.948650920968708
"456",0.930212219022401
"457",0.934962020912658
"458",0.933483445756586
"459",0.944176539940857
"460",0.949539998840333
"461",0.952216896345117
"462",0.956411024565608
"463",0.924384893407294
"464",0.931173776068343
"465",0.916276889773672
"466",0.944079901041767
"467",0.958334138657492
"468",0.944756373335395
"469",0.93910299773865
"470",0.938315390711069
"471",0.925510736581689
"472",0.9450317941978
"473",0.917910087168287
"474",0.939441233885464
"475",0.951086221225768
"476",0.958802837318077
"477",0.959662923519975
"478",0.948017936179671
"479",0.925032374031195
"480",0.964799281006591
"481",0.94391078296836
"482",0.948752391812753
"483",0.933406134637314
"484",0.953642320106689
"485",0.957817120547363
"486",0.938924215775334
"487",0.953806606235142
"488",0.948887686271478
"489",0.964533524034094
"490",0.954275304895727
"491",0.941103422949806
"492",0.947848818106264
"493",0.942200274454473
"494",0.94022400896809
"495",0.944509944142716
"496",0.950632018400046
"497",0.932338274802373
"498",0.94854461817971
"499",0.935556350142059
"500",0.952366686638706
"501",0.927332379829529
"502",0.947452598619997
"503",0.947853650051219
"504",0.946964572179594
"505",0.946321923500647
"506",0.929071880013143
"507",0.938784089371654
"508",0.950704497574364
"509",0.94498830669321
"510",0.946215620711649
"511",0.954647364657222
"512",0.961508726492588
"513",0.945162256711572
"514",0.947239993041999
"515",0.954280136840681
"516",0.953642320106689
"517",0.945123601151936
"518",0.946399234619919
"519",0.9556475772628
"520",0.949965209996328
"521",0.953275092290149
"522",0.943480739867411
"523",0.94900848489534
"524",0.923138251609038
"525",0.931541003884884
"526",0.959542124896113
"527",0.948336844546667
"528",0.946273604051103
"529",0.935797947389783
"530",0.949095459904521
"531",0.940021067280002
"532",0.948090415353988
"533",0.946954908289685
"534",0.952270047739616
"535",0.936073368252189
"536",0.949970041941282
"537",0.933662227719902
"538",0.94952550300547
"539",0.939276947757011
"540",0.932343106747328
"541",0.944843348344576
"542",0.910531707222791
"543",0.9436836815555
"544",0.957503044125321
"545",0.955869846730706
"546",0.949167939078838
"547",0.941258045188349
"548",0.943272966234369
"549",0.956232242602292
"550",0.95302866309747
"551",0.961127002841184
"552",0.926196872765225
"553",0.935121475096156
"554",0.9521444171708
"555",0.946742302711687
"556",0.936658033591681
"557",0.969582906511529
"558",0.935227777885154
"559",0.951695046290033
"560",0.946167301262104
"561",0.947834322271401
"562",0.948259533427395
"563",0.955096735537989
"564",0.958469433116218
"565",0.945916040124471
"566",0.930429656545353
"567",0.92297879742554
"568",0.928806123040646
"569",0.941813718858115
"570",0.931811592802335
"571",0.950013529445873
"572",0.937315178105491
"573",0.929303813370958
"574",0.945974023463925
"575",0.951376137923037
"576",0.939963083940548
"577",0.92494056707706
"578",0.933314327683179
"579",0.947433270840179
"580",0.960667968070508
"581",0.955666905042618
"582",0.95134714625331
"583",0.914532557645103
"584",0.941480314656255
"585",0.958464601171263
"586",0.954449254914088
"587",0.928390575774561
"588",0.944302170509674
"589",0.952782233904791
"590",0.945635787317111
"591",0.940774850692901
"592",0.926510949187267
"593",0.94989273082201
"594",0.949559326620151
"595",0.947312472216317
"596",0.961170490345774
"597",0.946491041574054
"598",0.953560177042463
"599",0.92998511760954
"600",0.929414948104911
"601",0.950313110033051
"602",0.961218809795319
"603",0.939851949206595
"604",0.925375442122963
"605",0.950356597537641
"606",0.931937223371151
"607",0.929439107829684
"608",0.955913334235296
"609",0.929250661976459
"610",0.947829490326446
"611",0.942451535592106
"612",0.921625852838284
"613",0.957962078895997
"614",0.943775488509635
"615",0.943717505170181
"616",0.939687663078142
"617",0.959271535978662
"618",0.955232029996714
"619",0.957333926051914
"620",0.934072943041033
"621",0.954169002106728
"622",0.955720056437117
"623",0.944563095537216
"624",0.929700032857226
"625",0.964953903245134
"626",0.95802972612536
"627",0.944210363555538
"628",0.970645934401515
"629",0.964200119832235
"630",0.938523164344112
"631",0.956275730106883
"632",0.958319642822629
"633",0.928661164692012
"634",0.939581360289144
"635",0.943939774638087
"636",0.963692765612014
"637",0.9520912657763
"638",0.960585825006282
"639",0.946925916619958
"640",0.967645296584781
"641",0.944775701115213
"642",0.96317091555693
"643",0.91923887203077
"644",0.942847755078374
"645",0.921248961131835
"646",0.951028237886314
"647",0.926085738031272
"648",0.942200274454473
"649",0.958343802547401
"650",0.950400085042231
"651",0.922109047333733
"652",0.927946036838748
"653",0.930753396857303
"654",0.945800073445563
"655",0.917596010746246
"656",0.933860337463036
"657",0.948607433464118
"658",0.966190881153482
"659",0.945974023463925
"660",0.942567502271014
"661",0.94274628423433
"662",0.960793598639324
"663",0.941586617445254
"664",0.954855138290265
"665",0.930666421848122
"666",0.957894431666634
"667",0.932662015114324
"668",0.953197781170877
"669",0.93396180830708
"670",0.937643750362396
"671",0.938257407371615
"672",0.932333442857419
"673",0.946597344363053
"674",0.937005933628404
"675",0.937131564197221
"676",0.951168364289994
"677",0.951980131042347
"678",0.963190243336748
"679",0.950747985078954
"680",0.953115638106651
"681",0.94849146678521
"682",0.950651346179864
"683",0.934734919499797
"684",0.94232590502329
"685",0.953458706198419
"686",0.943060360656371
"687",0.939547536674462
"688",0.945998183188697
"689",0.948733064032935
"690",0.936648369701772
"691",0.947959952840217
"692",0.931352558031659
"693",0.956159763427975
"694",0.944278010784901
"695",0.964639826823093
"696",0.958440441446491
"697",0.946940412454821
"698",0.92685884922399
"699",0.952825721409382
"700",0.927897717389203
"701",0.952526140822204
"702",0.925539728251416
"703",0.94194901331684
"704",0.960015655501652
"705",0.935285761224608
"706",0.948143566748488
"707",0.945418349794159
"708",0.953366899244284
"709",0.952825721409382
"710",0.926651075590947
"711",0.954628036877404
"712",0.933894161077717
"713",0.949530334950424
"714",0.949535166895379
"715",0.961064187556775
"716",0.936029880747599
"717",0.954033707648002
"718",0.936711184986181
"719",0.956715437097741
"720",0.947665204197994
"721",0.958643383134579
"722",0.931652138618837
"723",0.943698177390363
"724",0.954197993776455
"725",0.947428438895224
"726",0.936459923848547
"727",0.941180734069078
"728",0.957628674694138
"729",0.935295425114517
"730",0.949970041941282
"731",0.956623630143605
"732",0.950723825354182
"733",0.932072517829877
"734",0.962547594657802
"735",0.922447283480547
"736",0.94616246931715
"737",0.926510949187267
"738",0.951786853244168
"739",0.94849146678521
"740",0.95695220240051
"741",0.953502193703009
"742",0.927501497902936
"743",0.959160401244709
"744",0.943939774638087
"745",0.947254488876863
"746",0.94596919151897
"747",0.930439320435262
"748",0.962885830804615
"749",0.942673805060013
"750",0.945423181739114
"751",0.939093333848741
"752",0.947481590289723
"753",0.958575735905217
"754",0.94340342874814
"755",0.941920021647113
"756",0.954275304895727
"757",0.924351069792613
"758",0.951260171244129
"759",0.948133902858579
"760",0.943045864821508
"761",0.939088501903786
"762",0.95330891590483
"763",0.958107037244632
"764",0.967432691006784
"765",0.953763118730551
"766",0.947636212528267
"767",0.937083244747676
"768",0.936141015481552
"769",0.921732155627283
"770",0.944761205280349
"771",0.937493960068807
"772",0.946297763775875
"773",0.949346721042154
"774",0.929922302325132
"775",0.96064864029069
"776",0.922080055664006
"777",0.952192736620344
"778",0.956739596822513
"779",0.948225709812714
"780",0.949844411372466
"781",0.966437310346161
"782",0.940837665977309
"783",0.926950656178125
"784",0.931376717756431
"785",0.930067260673766
"786",0.951492104601944
"787",0.964026169813873
"788",0.936126519646688
"789",0.930482807939852
"790",0.9626538974468
"791",0.961764819575175
"792",0.941746071628752
"793",0.946491041574054
"794",0.937503623958716
"795",0.932893948472139
"796",0.96840874388759
"797",0.944882003904212
"798",0.944505112197762
"799",0.927583640967162
"800",0.948998821005431
"801",0.943693345445409
"802",0.950820464253271
"803",0.940475270105723
"804",0.940533253445177
"805",0.967147606254469
"806",0.929671041187499
"807",0.944335994124355
"808",0.942668973115058
"809",0.946689151317188
"810",0.96275053634589
"811",0.947699027812675
"812",0.947911633390672
"813",0.921949593150235
"814",0.937025261408222
"815",0.932879452637276
"816",0.945041458087709
"817",0.953323411739693
"818",0.932347938692282
"819",0.938233247646843
"820",0.946143141537332
"821",0.947409111115406
"822",0.936571058582501
"823",0.941006784050716
"824",0.917615338526063
"825",0.942379056417789
"826",0.92643847001295
"827",0.949578654399969
"828",0.955347996675622
"829",0.936696689151317
"830",0.958831828987804
"831",0.922065559829142
"832",0.947829490326446
"833",0.945930535959334
"834",0.956377200950927
"835",0.925931115792729
"836",0.945698602601519
"837",0.938948375500106
"838",0.950467732271594
"839",0.934633448655753
"840",0.947148186087864
"841",0.940523589555268
"842",0.943427588472912
"843",0.939310771371692
"844",0.957686658033592
"845",0.953690639556234
"846",0.969128703685808
"847",0.948849030711842
"848",0.951772357409304
"849",0.946152805427241
"850",0.94447128858308
"851",0.942973385647191
"852",0.947027387464002
"853",0.936880303059588
"854",0.957638338584047
"855",0.928264945205744
"856",0.951095885115677
"857",0.944954483078529
"858",0.954908289684764
"859",0.946737470766733
"860",0.96877597170413
"861",0.933580084655676
"862",0.935657820986103
"863",0.943616034326137
"864",0.934894373683295
"865",0.946191460986876
"866",0.941852374417751
"867",0.976057712750536
"868",0.943243974564642
"869",0.951409961537718
"870",0.930342681536172
"871",0.964779953226773
"872",0.945481165078567
"873",0.940750690968128
"874",0.956019637024295
"875",0.946684319372234
"876",0.948815207097161
"877",0.946452386014419
"878",0.962856839134889
"879",0.933783026343764
"880",0.946491041574054
"881",0.941987668876476
"882",0.950298614198187
"883",0.948737895977889
"884",0.94924525019811
"885",0.938344382380796
"886",0.949018148785249
"887",0.939465393610236
"888",0.94961247801465
"889",0.935474207077833
"890",0.929356964765457
"891",0.946776126326369
"892",0.911841164305456
"893",0.947597556968631
"894",0.960440866657647
"895",0.931917895591333
"896",0.948418987610893
"897",0.950603026730319
"898",0.947119194418137
"899",0.930980498270164
"900",0.939151317188195
"901",0.939793965867141
"902",0.938721274087246
"903",0.936918958619223
"904",0.94260615783065
"905",0.929729024526953
"906",0.958831828987804
"907",0.952777401959837
"908",0.952226560235026
"909",0.955072575813216
"910",0.943973598252769
"911",0.962277005740351
"912",0.954309128510408
"913",0.930313689866445
"914",0.933179033224454
"915",0.950139160014689
"916",0.963823228125785
"917",0.950211639189006
"918",0.954434759079225
"919",0.909188426525445
"920",0.938605307408338
"921",0.945432845629023
"922",0.945200912271207
"923",0.915209029938731
"924",0.952352190803842
"925",0.946297763775875
"926",0.938991863004697
"927",0.910623514176926
"928",0.938948375500106
"929",0.937445640619262
"930",0.922674384893407
"931",0.943804480179362
"932",0.947945457005354
"933",0.948592937629255
"934",0.949037476565067
"935",0.948259533427395
"936",0.962523434933029
"937",0.930337849591217
"938",0.948607433464118
"939",0.934072943041033
"940",0.959025106785984
"941",0.949322561317381
"942",0.942195442509519
"943",0.957353253831732
"944",0.949225922418292
"945",0.951342314308355
"946",0.945418349794159
"947",0.91428129650747
"948",0.943930110748178
"949",0.950680337849591
"950",0.931685962233518
"951",0.956676781538105
"952",0.913334235296391
"953",0.95653182318947
"954",0.945853224840063
"955",0.955773207831616
"956",0.956082452308703
"957",0.949984537776146
"958",0.935261601499836
"959",0.929028392508553
"960",0.958851156767622
"961",0.943596706546319
"962",0.928052339627747
"963",0.93470592783007
"964",0.930487639884806
"965",0.945331374784978
"966",0.946457217959373
"967",0.939460561665281
"968",0.953767950675506
"969",0.942118131390247
"970",0.91119851562651
"971",0.909666789075939
"972",0.92680569782949
"973",0.927946036838748
"974",0.926940992288216
"975",0.944886835849166
"976",0.938987031059742
"977",0.937237866986219
"978",0.945766249830882
"979",0.928859274435146
"980",0.929603393958136
"981",0.962219022400897
"982",0.950699665629409
"983",0.943838303794043
"984",0.941997332766385
"985",0.95410618682232
"986",0.951820676858849
"987",0.95690871489592
"988",0.924109472544889
"989",0.912208392121997
"990",0.933314327683179
"991",0.945428013684068
"992",0.924926071242196
"993",0.938189760142252
"994",0.940219177023135
"995",0.917900423278378
"996",0.94540868590425
"997",0.946060998473105
"998",0.939789133922186
"999",0.955922998125205
"1000",0.95167088656526
