"","x"
"1",0.979290355171481
"2",0.9507014180278
"3",0.940902908182707
"4",0.887087477929857
"5",0.993402388103749
"6",0.968201757031973
"7",0.933085214696343
"8",0.95101015391881
"9",0.917373248822692
"10",0.914282462282347
"11",0.9061167087713
"12",0.991973073518276
"13",0.899520155612414
"14",0.812364401611525
"15",0.931560803503084
"16",0.94499084168956
"17",0.952501225821899
"18",0.98497126901951
"19",1
"20",0.973458682806568
"21",0.787078061830921
"22",0.961785726996717
"23",0.934789271275389
"24",0.951964077668129
"25",0.924526950878581
"26",0.955147294758613
"27",0.888346895875038
"28",0.957391264537412
"29",0.890997739830024
"30",0.967284118794555
"31",0.856590772753945
"32",0.983424770962562
"33",0.922297477824611
"34",0.936541848698693
"35",0.863047526382315
"36",0.978096789505895
"37",0.871893847529623
"38",0.995718910283107
"39",0.958933949935808
"40",0.946942214728407
"41",0.970521674963276
"42",0.864193571112003
"43",0.820186406155109
"44",0.990870904625345
"45",0.968058227057238
"46",0.940017346249072
"47",0.914738339256466
"48",0.961051128994
"49",0.91985560381571
"50",0.883331856167601
"51",0.970888806124846
"52",0.869159376240916
"53",0.978941962544501
"54",0.945596582990486
"55",0.972719267999778
"56",0.961577188414836
"57",0.854942063091556
"58",0.964767405224595
"59",0.983392407510063
"60",0.992177303565375
"61",0.974061886796588
"62",0.965769799824177
"63",0.999038385666664
"64",0.934071689287155
"65",0.974269386920872
"66",0.980469861326866
"67",1
"68",0.960811567106425
"69",0.918260910576087
"70",0.994206166142719
"71",0.962682303546307
"72",0.902825302835619
"73",0.90562985515354
"74",0.906028454665609
"75",0.900867069574288
"76",0.901704922566051
"77",0.959454899386626
"78",0.920497072386965
"79",0.90164750965756
"80",0.938169356429878
"81",0.990594295728513
"82",0.863534454640102
"83",0.841685065720972
"84",0.891424021001524
"85",0.89222000970394
"86",0.998046238844333
"87",0.99596213339125
"88",0.844274448701436
"89",0.989473295401084
"90",0.948479239611945
"91",0.912748547409239
"92",0.918724715330284
"93",0.95084591781472
"94",0.991893763058947
"95",0.92397567882683
"96",0.969663004255903
"97",0.917609949297413
"98",0.869177558216656
"99",0.799638266844798
"100",0.990836089534741
